Ej. 5/Ej5_tb.vcd
$date
	Fri Oct 30 16:52:04 2020
$end
$version
	Icarus Verilog
$end
$timescale
	1ps
$end
$scope module Ejercicio_5 $end
$var wire 13 ! OUT [12:0] $end
$var reg 7 " ADD [6:0] $end
$scope module U1 $end
$var wire 7 # ADD [6:0] $end
$var reg 13 $ Y [12:0] $end
$upscope $end
$upscope $end
$enddefinitions $end
#0
$dumpvars
bx $
bx #
bx "
bx !
$end
#3
b1000000001000 !
b1000000001000 $
b0 "
b0 #
#4
b1111110 "
b1111110 #
#5
b110110 "
b110110 #
#6
b101110 "
b101110 #
#7
b1111110 "
b1111110 #
#8
b100000001000 !
b100000001000 $
b101 "
b101 #
#9
b1000000001000 !
b1000000001000 $
b1 "
b1 #
#10
b1101 "
b1101 #
#11
b100000001000 !
b100000001000 $
b1001 "
b1001 #
#12
b1001000010 !
b1001000010 $
b10001 "
b10001 #
#13
b1001001100000 !
b1001001100000 $
b11001 "
b11001 #
#14
b11010000010 !
b11010000010 $
b100001 "
b100001 #
#15
b11010000100 !
b11010000100 $
b101001 "
b101001 #
#16
b1011010100000 !
b1011010100000 $
b110001 "
b110001 #
#17
b1000000111000 !
b1000000111000 $
b111001 "
b111001 #
#18
b100000001000 !
b100000001000 $
b1000011 "
b1000011 #
#19
b1000000001000 !
b1000000001000 $
b1000001 "
b1000001 #
#20
b1001011 "
b1001011 #
#21
b100000001000 !
b100000001000 $
b1001001 "
b1001001 #
#22
b11011000010 !
b11011000010 $
b1010001 "
b1010001 #
#23
b1011011100000 !
b1011011100000 $
b1011001 "
b1011001 #
#24
b100000001000 !
b100000001000 $
b1100001 "
b1100001 #
#25
b1001 !
b1001 $
b1101001 "
b1101001 #
#26
b11100000010 !
b11100000010 $
b1110001 "
b1110001 #
#27
b1011100100000 !
b1011100100000 $
b1111001 "
b1111001 #
#28
b1011011100000 !
b1011011100000 $
b1011011 "
b1011011 #
#29
b1011101 "
b1011101 #
#30
b1011111 "
b1011111 #
